<?xml version="1.0" encoding="utf-8"?>
<!-- Generator: Adobe Illustrator 25.0.0, SVG Export Plug-In . SVG Version: 6.00 Build 0)  -->
<svg version="1.1" id="Layer_1" xmlns="http://www.w3.org/2000/svg" xmlns:xlink="http://www.w3.org/1999/xlink" x="0px" y="0px"
	 viewBox="0 0 200 200" style="enable-background:new 0 0 200 200;" xml:space="preserve">
<style type="text/css">
	.st0{fill:#010101;}
</style>
<path class="st0" d="M148.3,4.6l-15.5,16.8c-0.1,0.2-0.2,0.4-0.2,0.6l1.5,19.2c0,0.2,0,0.4-0.1,0.5l-15.1,20.9
	c-0.3,0.4-0.2,0.8,0.2,1.1l14.9,9.7c0.1,0.1,0.2,0.1,0.4,0.1l19.6,1.5c0,0,0,0,0.1,0h7.3c0.2,0,0.3,0.1,0.4,0.1L177.9,87
	c0.3,0.2,0.6,0.2,0.9,0l10.5-6.7c0.8-0.5,1.6,0.5,0.9,1.2L178.7,93c-0.2,0.2-0.5,0.3-0.8,0.2l-22.3-8.9c-0.1,0-0.2-0.1-0.3-0.1
	h-10.4c-0.1,0-0.2,0-0.2,0l-19,5.9c-0.4,0.1-0.6,0.5-0.5,0.9l4.4,17.4c0,0.1,0.1,0.2,0.1,0.3l39.9,49.8c0.6,0.7-0.4,1.7-1.1,1
	l-44.8-40.1c-0.1-0.1-0.2-0.2-0.4-0.2l-13.9-2.8c-0.5-0.1-1,0.4-0.9,0.9l15,81.7c0.2,0.9-1.2,1.3-1.5,0.4l-27.3-82.6
	c-0.1-0.4-0.5-0.6-0.9-0.5l-13.2,2.4c-0.3,0.1-0.6-0.1-0.8-0.4l-1.3-2.4c-0.3-0.6-1.1-0.5-1.4,0.1l-16.6,39.6
	c-0.4,0.8-1.6,0.5-1.5-0.4l6.5-37.6l2.8-14.3c0.1-0.5-0.3-0.9-0.7-0.9H58c-0.1,0-0.2,0-0.3,0.1l-47.1,22.2c-0.8,0.4-1.5-0.8-0.8-1.3
	l46.2-33c0.2-0.1,0.3-0.3,0.3-0.5l2.9-19c0-0.3-0.1-0.6-0.3-0.8L38,57c-0.1,0-0.1-0.1-0.2-0.1l-24.4-6.2c-0.9-0.2-0.7-1.5,0.2-1.5
	h27.3c0.1,0,0.2,0,0.3,0.1l29.3,14.7c0.5,0.2,1.1-0.1,1.1-0.6l1.4-20.1c0,0,0-0.1,0-0.1l6-25.5c0-0.2,0-0.4-0.1-0.6L68.9,1.2
	c-0.5-0.8,0.5-1.6,1.2-0.9l16.5,16.6c0.2,0.2,0.2,0.4,0.2,0.7L82.3,46c0,0.1,0,0.1,0,0.2l1.3,12c0.1,0.6,0.8,0.9,1.3,0.5l1.4-1.4
	c0.3-0.3,0.8-0.3,1.1,0l6,6c0.2,0.2,0.5,0.3,0.8,0.2l14.6-5.8c0.1,0,0.2-0.1,0.3-0.2l16.5-19.5c0.1-0.1,0.1-0.2,0.2-0.4l3-17.8
	c0-0.2,0.1-0.3,0.3-0.5l18.3-15.7C148,2.9,149,3.9,148.3,4.6z M109.1,68.5l-3.6,6c-0.2,0.3-0.6,0.5-1,0.3l-12.7-5.7
	c-0.2-0.1-0.5-0.1-0.7,0l-6.9,4.1c-0.2,0.1-0.6,0.1-0.8,0l-8.5-5.4c-0.4-0.2-0.8-0.1-1.1,0.2l-8,12.6c-0.2,0.3-0.1,0.7,0.1,0.9
	l3.9,3.9c0.1,0.1,0.2,0.3,0.2,0.5v5c0,0.4,0.3,0.8,0.8,0.8h10.8c0.3,0,0.6,0.2,0.7,0.5l5,12.7c0.2,0.4,0.6,0.6,1,0.4l8.5-3.9
	c0.2-0.1,0.4-0.1,0.6,0l15.5,6.6c0.6,0.2,1.1-0.2,1-0.8l-2.8-17.5c0-0.3,0.1-0.6,0.3-0.7l8.2-5.9c0.3-0.2,0.4-0.7,0.2-1.1l-9.6-13.7
	C110.1,68,109.4,68,109.1,68.5z"/>
</svg>
