<?xml version="1.0" encoding="utf-8"?>
<!-- Generator: Adobe Illustrator 25.0.0, SVG Export Plug-In . SVG Version: 6.00 Build 0)  -->
<svg version="1.1" id="Capa_1" xmlns="http://www.w3.org/2000/svg" xmlns:xlink="http://www.w3.org/1999/xlink" x="0px" y="0px"
	 viewBox="0 0 612.1 612.1" style="enable-background:new 0 0 612.1 612.1;" xml:space="preserve">
<g>
	<path d="M16.9,457.1l96.1,39.3L10,482.6c-7.9-1-10.7-5-9.8-9.8L4.1,459c0-2.9,1.9-3.8,3.8-5C10,454,12.9,454,16.9,457.1z
		 M27.7,374.7c-1.9,0-3.8,1-5.9,2.9L10,389.3c-5,5-2.9,10.7,5,16.7l101.9,78.5L38.4,382.6C35.5,377.6,31.7,374.7,27.7,374.7z
		 M612.1,118.7v153c0,14.7-1.9,26.4-9.8,42.1l-76.4,159.9c-8.8,18.6-33.3,34.3-54,34.3H254.2c-21.6,0-45.2-15.7-54-34.3l-76.4-159.9
		c-7.9-15.7-9.8-27.4-9.8-42.1v-153c0-7.9,6.9-14.7,14.7-14.7h55c7.9,0,14.7,6.9,14.7,14.7V154h327.5v-35.2
		c0-7.9,6.9-14.7,14.7-14.7h56.9C605.2,104.1,612.1,110.9,612.1,118.7z M194.3,276.7c21.6,0,38.3-16.7,38.3-38.3
		c0-20.7-16.7-38.3-38.3-38.3s-38.1,17.8-38.1,38.3S172.8,276.7,194.3,276.7z M541.5,318.8H182.6c0,0,51.9,110.9,51.9,109.7
		c10.7,21.6,19.5,27.4,42.1,27.4h170.6c22.6,0,31.4-5.9,42.1-27.4L541.5,318.8z M567.9,238.4c0-20.7-16.7-38.3-38.3-38.3
		c-20.7,0-38.3,17.6-38.3,38.3s16.7,38.3,38.3,38.3C550.3,276.7,567.9,259.1,567.9,238.4z M80.7,355c-1,0-1.9,0-2.9,1l-11.7,7.8
		c-5,2.9-3.8,7.9,1,12.8l62.8,82.3l-40.2-96.1C87.4,358.1,84.5,355,80.7,355z"/>
</g>
</svg>
